Diabetes probability based on behavioral, medical, demographic, and economic factors MGT 6203: Data Analytics in Business – Team 29
…
diabetes_data$Diabetes <- as.numeric(diabetes_data$Diabetes)

#Group by state, calculates number of diabetes for each state. 

state_diabetes <- diabetes_data %>%
  group_by(STATE_code) %>%
  summarise(total_diabetes = sum(Diabetes))

# keep desired columns
print(state_diabetes)

## # A tibble: 50 x 2
##    STATE_code total_diabetes
##         <dbl>          <dbl>
##  1          1            239
##  2          2            210
##  3          4            467
##  4          5            194
##  5          6            385
##  6          8            294
##  7          9            309
##  8         10            155
##  9         11             85
## 10         13            373
## # ... with 40 more rows
…
